{"count":70,"next":"http://localhost:8000/api/articles/?page=2&page_size=100","previous":null,"results":[{"id":2,"title":"Article 2","content":"Content 2","author":"Author 2","created_at":"2026-01-01T01:00:00Z"},{"id":3,"title":"Article 3","content":"Content 3","author":"Author 3","created_at":"2026-01-01T02:00:00Z"},{"id":4,"title":"Article 4","content":"Content 4","author":"Author 4","created_at":"2026-01-01T03:00:00Z"},{"id":5,"title":"Article 5","content":"Content 5","author":"Author 1","created_at":"2026-01-01T04:00:00Z"},{"id":7,"title":"Article 7","content":"Content 7","author":"Author 3","created_at":"2026-01-01T06:00:00Z"},{"id":8,"title":"Article 8","content":"Content 8","author":"Author 4","created_at":"2026-01-01T07:00:00Z"},{"id":9,"title":"Article 9","content":"Content 9","author":"Author 1","created_at":"2026-01-01T08:00:00Z"},{"id":10,"title":"Article 10","content":"Content 10","author":"Author 2","created_at":"2026-01-01T09:00:00Z"},{"id":12,"title":"Article 12","content":"Content 12","author":"Author 4","created_at":"2026-01-01T11:00:00Z"},{"id":13,"title":"Article 13","content":"Content 13","author":"Author 1","created_at":"2026-01-01T12:00:00Z"},{"id":14,"title":"Article 14","content":"Content 14","author":"Author 2","created_at":"2026-01-01T13:00:00Z"},{"id":15,"title":"Article 15","content":"Content 15","author":"Author 3","created_at":"2026-01-01T14:00:00Z"},{"id":17,"title":"Article 17","content":"Content 17","author":"Author 1","created_at":"2026-01-01T16:00:00Z"},{"id":18,"title":"Article 18","content":"Content 18","author":"Author 2","created_at":"2026-01-01T17:00:00Z"},{"id":19,"title":"Article 19","content":"Content 19","author":"Author 3","created_at":"2026-01-01T18:00:00Z"},{"id":20,"title":"Article 20","content":"Content 20","author":"Author 4","created_at":"2026-01-01T19:00:00Z"},{"id":22,"title":"Article 22","content":"Content 22","author":"Author 2","created_at":"2026-01-01T21:00:00Z"},{"id":23,"title":"Article 23","content":"Content 23","author":"Author 3","created_at":"2026-01-01T22:00:00Z"},{"id":24,"title":"Article 24","content":"Content 24","author":"Author 4","created_at":"2026-01-01T23:00:00Z"},{"id":25,"title":"Article 25","content":"Content 25","author":"Author 1","created_at":"2026-01-02T00:00:00Z"},{"id":27,"title":"Article 27","content":"Content 27","author":"Author 3","created_at":"2026-01-02T02:00:00Z"},{"id":28,"title":"Article 28","content":"Content 28","author":"Author 4","created_at":"2026-01-02T03:00:00Z"},{"id":29,"title":"Article 29","content":"Content 29","author":"Author 1","created_at":"2026-01-02T04:00:00Z"},{"id":30,"title":"Article 30","content":"Content 30","author":"Author 2","created_at":"2026-01-02T05:00:00Z"},{"id":32,"title":"Article 32","content":"Content 32","author":"Author 4","created_at":"2026-01-02T07:00:00Z"},{"id":33,"title":"Article 33","content":"Content 33","author":"Author 1","created_at":"2026-01-02T08:00:00Z"},{"id":34,"title":"Article 34","content":"Content 34","author":"Author 2","created_at":"2026-01-02T09:00:00Z"},{"id":35,"title":"Article 35","content":"Content 35","author":"Author 3","created_at":"2026-01-02T10:00:00Z"},{"id":37,"title":"Article 37","content":"Content 37","author":"Author 1","created_at":"2026-01-02T12:00:00Z"},{"id":38,"title":"Article 38","content":"Content 38","author":"Author 2","created_at":"2026-01-02T13:00:00Z"},{"id":39,"title":"Article 39","content":"Content 39","author":"Author 3","created_at":"2026-01-02T14:00:00Z"},{"id":40,"title":"Article 40","content":"Content 40","author":"Author 4","created_at":"2026-01-02T15:00:00Z"},{"id":42,"title":"Article 42","content":"Content 42","author":"Author 2","created_at":"2026-01-02T17:00:00Z"},{"id":43,"title":"Article 43","content":"Content 43","author":"Author 3","created_at":"2026-01-02T18:00:00Z"},{"id":44,"title":"Article 44","content":"Content 44","author":"Author 4","created_at":"2026-01-02T19:00:00Z"},{"id":45,"title":"Article 45","content":"Content 45","author":"Author 1","created_at":"2026-01-02T20:00:00Z"},{"id":47,"title":"Article 47","content":"Content 47","author":"Author 3","created_at":"2026-01-02T22:00:00Z"},{"id":48,"title":"Article 48","content":"Content 48","author":"Author 4","created_at":"2026-01-02T23:00:00Z"},{"id":49,"title":"Article 49","content":"Content 49","author":"Author 1","created_at":"2026-01-03T00:00:00Z"},{"id":50,"title":"Article 50","content":"Content 50","author":"Author 2","created_at":"2026-01-03T01:00:00Z"},{"id":51,"title":"Extra Article 1","content":"Extra content","author":"Load Test","created_at":"2026-03-14T04:59:02.464896Z"},{"id":52,"title":"Extra Article 2","content":"Extra content","author":"Load Test","created_at":"2026-03-14T04:59:02.464916Z"},{"id":53,"title":"Extra Article 3","content":"Extra content","author":"Load Test","created_at":"2026-03-14T04:59:02.464921Z"},{"id":54,"title":"Extra Article 4","content":"Extra content","author":"Load Test","created_at":"2026-03-14T04:59:02.464926Z"},{"id":55,"title":"Extra Article 5","content":"Extra content","author":"Load Test","created_at":"2026-03-14T04:59:02.464930Z"},{"id":56,"title":"Extra Article 6","content":"Extra content","author":"Load Test","created_at":"2026-03-14T04:59:02.464935Z"},{"id":57,"title":"Extra Article 7","content":"Extra content","author":"Load Test","created_at":"2026-03-14T04:59:02.464938Z"},{"id":58,"title":"Extra Article 8","content":"Extra content","author":"Load Test","created_at":"2026-03-14T04:59:02.464943Z"},{"id":59,"title":"Extra Article 9","content":"Extra content","author":"Load Test","created_at":"2026-03-14T04:59:02.464946Z"},{"id":60,"title":"Extra Article 10","content":"Extra content","author":"Load Test","created_at":"2026-03-14T04:59:02.464950Z"}]}